<svg width="428" height="803" viewBox="0 0 428 803" fill="none" xmlns="http://www.w3.org/2000/svg">
<path d="M1025.9 802.565L1077.4 337.275L-436.543 152.024L-567.452 210.649C-655.229 222.827 -712.891 373.874 -545.321 600.99C-335.859 884.886 132.626 663.173 475.489 668.207C749.78 672.235 956.719 759.457 1025.9 802.565Z" fill="url(#paint0_linear_0_1)"/>
<path d="M563.496 -89L628.38 281.399C672.366 309.983 972.987 553.742 770.712 567.477C479.042 587.284 91.3172 936.766 -100.152 552.783C-253.327 245.596 -211.458 28.0266 -137.424 3.96104L-28.9247 -89H563.496Z" fill="#EEFBFC"/>
<circle cx="344" cy="-352" r="476" fill="#21A4D6" fill-opacity="0.1"/>
<defs>
<linearGradient id="paint0_linear_0_1" x1="-393.056" y1="292.335" x2="562.403" y2="702.821" gradientUnits="userSpaceOnUse">
<stop stop-color="#FED02B"/>
<stop offset="1" stop-color="#FFEAA0"/>
</linearGradient>
</defs>
</svg>
