<svg width="31" height="35" viewBox="0 0 31 35" fill="none" xmlns="http://www.w3.org/2000/svg">
<path d="M1.89781 9.569L0.329809 3.395L10.1788 0.454998H15.3238V35H7.87581V8.099L1.89781 9.569Z" fill="#0C4888"/>
<path d="M30.8017 27.16V35H22.8637V27.16H30.8017Z" fill="url(#paint0_linear_13_138)"/>
<defs>
<linearGradient id="paint0_linear_13_138" x1="-37.894" y1="7.4714" x2="69.6206" y2="13.674" gradientUnits="userSpaceOnUse">
<stop stop-color="#485EE9"/>
<stop offset="1" stop-color="#7165EF"/>
</linearGradient>
</defs>
</svg>
