<svg width="326" height="231" viewBox="0 0 326 231" fill="none" xmlns="http://www.w3.org/2000/svg">
<rect width="326" height="230" rx="25" fill="#333687"/>
<g clip-path="url(#clip0_0_1)">
<path d="M268.067 214.743L150.832 203.164C147.418 202.828 144.922 199.768 145.26 196.337L151.148 135.938C151.481 132.503 154.523 129.992 157.933 130.332L275.168 141.911C278.582 142.247 281.078 145.307 280.74 148.738L274.848 209.136C274.514 212.572 271.473 215.083 268.063 214.743H268.067Z" fill="#5263BD" stroke="#5263BD" stroke-width="1.05" stroke-linecap="round" stroke-linejoin="round"/>
<path d="M278.162 142.256L154.954 130.1C153.406 129.947 152.028 131.086 151.876 132.644L145.713 195.891C145.562 197.448 146.693 198.835 148.241 198.987L271.45 211.143C272.998 211.296 274.376 210.157 274.527 208.6L280.69 145.353C280.842 143.795 279.71 142.409 278.162 142.256Z" fill="#68D4AB" stroke="#5263BD" stroke-width="1.02" stroke-linecap="round" stroke-linejoin="round"/>
<path d="M178.229 125.943L170.869 125.217L169.718 137.031L177.078 137.757L178.229 125.943Z" fill="#F4FA8B" stroke="#5263BD" stroke-linecap="round" stroke-linejoin="round"/>
<g style="mix-blend-mode:multiply" opacity="0.58">
<path d="M170.551 128.508L169.719 137.034L174.889 137.545L175.721 129.019L170.551 128.508Z" fill="#5263BD"/>
<path d="M170.551 128.508L169.719 137.034L174.889 137.545L175.721 129.019L170.551 128.508Z" stroke="#5263BD" stroke-linecap="round" stroke-linejoin="round"/>
</g>
<path d="M156.485 135.054L216.446 140.97L210.57 201.275L150.609 195.359C149.992 195.298 149.545 194.746 149.605 194.13L155.263 136.068C155.324 135.448 155.872 134.998 156.485 135.058L156.485 135.054Z" fill="#F7F7DF" stroke="#5263BD" stroke-width="1.03" stroke-linecap="round" stroke-linejoin="round"/>
<path d="M271.009 207.253L210.474 201.276L216.353 140.974L276.888 146.951C277.187 146.981 277.404 147.247 277.374 147.548L271.598 206.765C271.568 207.065 271.304 207.283 271.005 207.253H271.009Z" fill="#F7F7DF" stroke="#5263BD" stroke-width="1.03" stroke-linecap="round" stroke-linejoin="round"/>
<path d="M156.483 135.057L216.445 140.973L210.894 197.937L150.933 192.021C150.316 191.96 149.869 191.408 149.929 190.792L155.261 136.071C155.322 135.45 155.871 135.001 156.483 135.061L156.483 135.057Z" fill="#F7F7DF" stroke="#5263BD" stroke-linecap="round" stroke-linejoin="round"/>
<path d="M271.338 203.913L210.803 197.936L216.358 140.974L276.893 146.951C277.191 146.981 277.408 147.247 277.378 147.548L271.927 203.43C271.897 203.73 271.633 203.948 271.334 203.918L271.338 203.913Z" fill="#F7F7DF" stroke="#5263BD" stroke-linecap="round" stroke-linejoin="round"/>
<path d="M274.261 147.553L217.909 141.993C216.999 141.903 216.189 142.572 216.1 143.488L211.039 195.423C210.95 196.339 211.615 197.154 212.525 197.243L268.877 202.803C269.787 202.893 270.597 202.224 270.686 201.308L275.747 149.373C275.836 148.457 275.171 147.643 274.261 147.553Z" fill="#F7F7DF" stroke="#5263BD" stroke-linecap="round" stroke-linejoin="round"/>
<g style="mix-blend-mode:multiply" opacity="0.58">
<path d="M263.76 154.253L260.151 155.138C259.619 155.269 259.06 155.221 258.557 155.007L254.541 153.303C253.514 152.867 252.886 151.807 252.994 150.691L253.765 142.792C253.904 141.384 255.147 140.35 256.551 140.49L264.181 141.244C265.58 141.384 266.607 142.635 266.468 144.047L265.693 152.017C265.589 153.102 264.813 154 263.76 154.257V154.253Z" fill="#5263BD"/>
<path d="M263.76 154.253L260.151 155.138C259.619 155.269 259.06 155.221 258.557 155.007L254.541 153.303C253.514 152.867 252.886 151.807 252.994 150.691L253.765 142.792C253.904 141.384 255.147 140.35 256.551 140.49L264.181 141.244C265.58 141.384 266.607 142.635 266.468 144.047L265.693 152.017C265.589 153.102 264.813 154 263.76 154.257V154.253Z" stroke="#5263BD" stroke-linecap="round" stroke-linejoin="round"/>
</g>
<path d="M263.076 153.268L259.467 154.153C258.934 154.284 258.375 154.236 257.872 154.022L253.856 152.317C252.829 151.881 252.201 150.822 252.309 149.706L253.081 141.806C253.219 140.398 254.463 139.365 255.867 139.504L263.496 140.259C264.896 140.398 265.922 141.649 265.784 143.062L265.008 151.031C264.904 152.117 264.129 153.015 263.076 153.272V153.268Z" fill="#5FAEDE" stroke="#5263BD" stroke-linecap="round" stroke-linejoin="round"/>
<path d="M168.405 126.444L161.045 125.717L159.892 137.531L167.252 138.259L168.405 126.444Z" fill="#DEFFD1" stroke="#5263BD" stroke-linecap="round" stroke-linejoin="round"/>
<g style="mix-blend-mode:multiply" opacity="0.58">
<path d="M159.839 137.39L160.004 135.468L167.36 136.431L167.252 138.258L159.839 137.39Z" fill="#5263BD"/>
<path d="M159.839 137.39L160.004 135.468L167.36 136.431L167.252 138.258L159.839 137.39Z" stroke="#5263BD" stroke-linecap="round" stroke-linejoin="round"/>
</g>
<path d="M156.551 137.591L152.729 176.766C152.69 177.15 152.794 177.534 153.015 177.852C154.857 180.533 156.364 183.524 157.872 186.392C158.791 188.14 159.813 189.832 160.857 191.506C161.126 191.938 161.581 192.217 162.083 192.265L209.343 196.929C210.24 197.017 211.042 196.358 211.128 195.452L216.197 143.476C216.284 142.574 215.63 141.767 214.729 141.68L158.336 136.117C157.439 136.03 156.637 136.688 156.551 137.595V137.591Z" fill="#F7F7DF" stroke="#5263BD" stroke-linecap="round" stroke-linejoin="round"/>
<g style="mix-blend-mode:multiply" opacity="0.58">
<path d="M172.434 140.856L173.82 141.013L174.609 136.836L173.322 136.758L172.434 140.856Z" fill="#5263BD"/>
<path d="M172.434 140.856L173.82 141.013L174.609 136.836L173.322 136.758L172.434 140.856Z" stroke="#5263BD" stroke-miterlimit="10"/>
</g>
<g style="mix-blend-mode:multiply" opacity="0.58">
<path d="M154.029 177.202C154.007 176.984 162.313 177.83 166.004 178.109C166.975 178.183 167.239 179.225 166.94 180.154L161.555 192.103C161.555 192.103 154.436 180.999 154.029 177.206V177.202Z" fill="#5263BD"/>
<path d="M154.029 177.202C154.007 176.984 162.313 177.83 166.004 178.109C166.975 178.183 167.239 179.225 166.94 180.154L161.555 192.103C161.555 192.103 154.436 180.999 154.029 177.206V177.202Z" stroke="#5263BD" stroke-linecap="round" stroke-linejoin="round"/>
</g>
<path d="M174.335 129.164L166.975 128.437L165.823 140.252L173.184 140.978L174.335 129.164Z" fill="#FFBAA9" stroke="#5263BD" stroke-linecap="round" stroke-linejoin="round"/>
<path d="M152.729 176.766C152.708 176.548 160.489 177.111 164.18 177.39C165.151 177.464 165.788 178.431 165.484 179.36L161.334 192.16C161.334 192.16 153.137 180.563 152.729 176.77V176.766Z" fill="#F7F7DF" stroke="#5263BD" stroke-linecap="round" stroke-linejoin="round"/>
<path d="M149.67 192.949L271.741 204.938" stroke="#5263BD" stroke-linecap="round" stroke-linejoin="round"/>
<path d="M149.67 194.257L271.741 206.246" stroke="#5263BD" stroke-linecap="round" stroke-linejoin="round"/>
<path d="M205.535 205.806L214.902 206.721L214.863 207.144C214.612 209.747 212.311 211.652 209.725 211.399C207.138 211.146 205.245 208.831 205.496 206.229L205.535 205.806Z" fill="#5263BD" stroke="#5263BD" stroke-width="1.28" stroke-linecap="round" stroke-linejoin="round"/>
<path d="M184.084 180.515C183.413 180.11 182.706 179.757 181.987 179.417C182 179.382 182.005 179.343 181.987 179.299C181.74 178.732 181.472 178.174 181.199 177.616C181.216 177.621 181.238 177.616 181.255 177.629C181.337 177.673 181.385 177.56 181.324 177.507C181.251 177.442 181.168 177.407 181.09 177.394C180.627 176.465 180.137 175.55 179.639 174.639C180.752 174.743 181.866 174.831 182.975 174.892C183.118 174.9 183.083 174.669 182.962 174.652C181.779 174.469 180.588 174.32 179.392 174.19C179.028 173.523 178.668 172.86 178.318 172.193C178.023 171.635 177.728 171.077 177.434 170.515C177.546 170.432 177.451 170.244 177.312 170.283C176.359 168.479 175.406 166.674 174.453 164.864C174.375 164.716 174.145 164.786 174.228 164.947C175.155 166.761 176.078 168.579 177.005 170.392C175.826 170.85 174.769 172.058 174.483 173.257C174.427 173.483 174.769 173.658 174.86 173.414C175.098 172.782 175.358 172.193 175.813 171.679C176.199 171.243 176.662 170.955 177.156 170.68C177.438 171.229 177.715 171.779 177.997 172.328C178.3 172.921 178.599 173.527 178.898 174.133C176.42 173.871 173.929 173.684 171.459 173.449C170.194 173.326 168.924 173.204 167.659 173.087C166.143 172.455 164.627 171.827 163.101 171.212C162.937 171.147 162.872 171.391 163.019 171.452C164.228 171.958 165.432 172.476 166.637 172.995C164.544 172.803 162.447 172.62 160.35 172.463C160.242 172.455 160.259 172.642 160.355 172.655C162.755 172.917 165.155 173.156 167.555 173.392C169.566 174.259 171.567 175.136 173.565 176.025C175.25 176.775 176.927 177.529 178.603 178.301C178.816 178.397 179.028 178.501 179.245 178.602C179.21 178.641 179.175 178.68 179.141 178.719C179.032 178.859 179.275 179.107 179.401 178.972C179.461 178.902 179.526 178.837 179.591 178.772C181.043 179.474 182.498 180.228 184.011 180.76C184.175 180.816 184.223 180.607 184.089 180.529L184.084 180.515ZM171.866 173.806C172.001 173.819 172.131 173.837 172.265 173.85C172.269 173.85 172.274 173.858 172.278 173.858C172.547 173.976 172.728 174.233 172.664 174.538C172.607 174.796 172.412 174.874 172.282 175.057C171.065 174.525 169.843 174.002 168.617 173.488C169.7 173.592 170.783 173.701 171.866 173.806ZM179.518 178.296C179.375 178.231 179.232 178.17 179.089 178.105C178.92 178.026 178.751 177.952 178.582 177.878C178.742 177.773 178.863 177.581 178.976 177.438C179.015 177.39 179.054 177.342 179.093 177.294C179.279 177.381 179.474 177.455 179.652 177.451C179.786 177.451 179.799 177.246 179.7 177.185C179.574 177.106 179.44 177.076 179.301 177.037C179.366 176.958 179.427 176.88 179.492 176.805C179.557 176.727 179.431 176.614 179.357 176.688C179.266 176.779 179.171 176.866 179.076 176.958C178.963 176.914 178.846 176.875 178.738 176.827C178.569 176.753 178.517 176.993 178.655 177.067C178.716 177.098 178.785 177.137 178.85 177.172C178.816 177.202 178.785 177.237 178.751 177.268C178.599 177.403 178.387 177.56 178.331 177.765C176.84 177.084 175.354 176.404 173.855 175.746C173.456 175.572 173.058 175.397 172.659 175.223C172.876 175.057 172.997 174.708 172.988 174.469C172.98 174.255 172.884 174.059 172.746 173.902C174.864 174.124 176.987 174.377 179.115 174.586C179.596 175.572 180.09 176.557 180.614 177.516C180.531 177.56 180.449 177.608 180.376 177.656C180.068 177.839 179.778 178.052 179.518 178.301V178.296ZM179.882 178.458C179.981 178.357 180.085 178.257 180.194 178.166C180.306 178.074 180.523 177.882 180.744 177.747C181.025 178.253 181.311 178.754 181.619 179.238C181.043 178.972 180.458 178.715 179.882 178.458Z" fill="#5263BD"/>
<path d="M174.592 168.723C174.323 168.352 173.794 168.723 173.543 169.002C173.508 168.984 173.469 168.984 173.456 169.028C173.348 169.455 173.24 169.891 173.144 170.327C173.079 170.327 173.014 170.327 172.954 170.327C172.802 170.336 172.863 170.554 172.993 170.562C173.023 170.562 173.062 170.562 173.097 170.567C173.04 170.855 172.988 171.142 172.954 171.434C172.936 171.578 173.183 171.692 173.222 171.526C173.3 171.216 173.357 170.898 173.404 170.575C173.851 170.575 174.345 170.493 174.47 170.031C174.531 169.799 174.427 169.573 174.249 169.459C174.514 169.268 174.839 169.063 174.587 168.718L174.592 168.723ZM174.197 169.132C174.037 169.246 173.877 169.302 173.764 169.473C173.69 169.586 173.825 169.786 173.959 169.721C174.232 169.813 174.301 169.922 174.163 170.057C174.132 170.122 174.085 170.17 174.024 170.205C173.911 170.283 173.755 170.305 173.625 170.318C173.565 170.323 173.508 170.323 173.448 170.327C173.495 169.983 173.534 169.638 173.573 169.294C173.599 169.294 173.621 169.285 173.643 169.263C173.768 169.115 173.916 169.002 174.102 168.941C174.371 168.853 174.358 169.023 174.193 169.141L174.197 169.132Z" fill="#5263BD"/>
<path d="M174.986 175.423C174.895 175.201 174.709 175.027 174.492 174.887C174.479 174.787 174.371 174.726 174.301 174.778C174.093 174.678 173.877 174.608 173.682 174.578C173.643 174.569 173.586 174.586 173.578 174.634C173.521 174.883 173.526 175.11 173.578 175.358C173.591 175.428 173.656 175.502 173.729 175.506C173.998 175.532 174.288 175.41 174.418 175.184C174.548 175.306 174.661 175.445 174.795 175.567C174.899 175.663 175.033 175.541 174.986 175.419V175.423ZM173.829 175.175C173.79 175.062 173.773 174.948 173.768 174.831C173.903 174.87 174.028 174.926 174.145 174.996C174.063 175.097 173.955 175.162 173.825 175.175H173.829Z" fill="#5263BD"/>
<path d="M167.274 174.791C167.049 174.73 166.806 174.761 166.568 174.791C166.537 174.669 166.507 174.543 166.468 174.421C166.412 174.255 166.295 174.085 166.117 174.111C166.126 174.068 166.135 174.02 166.139 173.976C166.156 173.858 165.953 173.762 165.918 173.898C165.827 174.242 165.706 174.573 165.584 174.905C165.537 174.909 165.489 174.913 165.441 174.922C165.264 174.944 165.32 175.188 165.467 175.214C165.402 175.389 165.342 175.559 165.285 175.737C165.238 175.89 165.485 176.082 165.576 175.912C165.697 175.689 165.792 175.45 165.866 175.205C166.005 175.201 166.143 175.192 166.282 175.188C166.325 175.445 166.36 175.672 166.373 175.724C166.425 175.977 166.828 175.955 166.767 175.672C166.732 175.506 166.698 175.341 166.659 175.175C166.884 175.175 167.122 175.166 167.322 175.066C167.452 175 167.391 174.826 167.27 174.791H167.274ZM165.966 174.861C166.009 174.682 166.048 174.499 166.083 174.316C166.091 174.316 166.096 174.325 166.104 174.32C166.13 174.32 166.178 174.551 166.23 174.826C166.143 174.835 166.057 174.848 165.966 174.857V174.861Z" fill="#5263BD"/>
<path d="M181.108 172.18C181.238 172.023 181.294 171.831 181.138 171.626C180.835 171.234 180.454 171.7 180.185 171.875C180.107 171.844 180.02 171.862 180.025 171.975C180.033 172.354 180.029 172.742 180.051 173.126C180.02 173.122 179.99 173.117 179.96 173.109C179.726 173.069 179.756 173.405 179.951 173.453C179.999 173.466 180.055 173.475 180.111 173.483C180.189 173.584 180.35 173.623 180.397 173.505C180.883 173.505 181.402 173.313 181.45 172.764C181.472 172.511 181.316 172.285 181.112 172.171L181.108 172.18ZM180.909 173.069C180.748 173.17 180.575 173.191 180.393 173.178C180.376 172.812 180.341 172.446 180.315 172.084C180.423 172.019 180.514 171.936 180.618 171.857C180.675 171.814 181.065 171.565 180.913 171.988C180.891 172.04 180.831 172.088 180.761 172.123C180.683 172.136 180.61 172.167 180.54 172.224C180.423 172.319 180.558 172.546 180.696 172.481C180.709 172.472 180.727 172.463 180.74 172.459C180.909 172.337 181.156 172.446 181.164 172.673C181.173 172.843 181.039 172.986 180.909 173.069Z" fill="#5263BD"/>
<path d="M184.448 166.844C184.652 166.569 184.89 166.36 185.224 166.233C185.302 166.203 185.25 166.076 185.176 166.103C184.791 166.238 184.422 166.477 184.18 166.813C184.136 166.874 184.171 166.961 184.232 166.992C184.37 167.062 184.505 167.127 184.643 167.197C184.765 167.253 185.129 167.362 184.908 167.537C184.708 167.698 184.353 167.668 184.167 167.528C184.08 167.463 183.937 167.541 183.998 167.655C184.223 168.077 184.864 167.938 185.189 167.703C185.679 167.349 184.83 166.996 184.444 166.844H184.448Z" fill="#5263BD"/>
<path d="M185.852 166.948C185.848 166.818 185.635 166.735 185.627 166.9C185.614 167.188 185.57 167.48 185.575 167.768C185.575 167.964 185.9 168.056 185.904 167.825C185.908 167.532 185.865 167.24 185.852 166.953V166.948Z" fill="#5263BD"/>
<path d="M186.129 166.286L186.103 166.251C186.03 166.159 185.878 166.181 185.882 166.316C185.882 166.412 186.047 166.53 186.112 166.412L186.138 166.36C186.138 166.36 186.138 166.303 186.129 166.286Z" fill="#5263BD"/>
<path d="M187.797 167.593C187.672 167.572 187.585 167.637 187.464 167.628C187.264 167.615 187.312 167.45 187.286 167.293C187.251 167.105 187.13 166.97 186.953 166.913C186.667 166.822 186.459 166.948 186.307 167.149C186.307 167.14 186.307 167.131 186.307 167.123C186.303 167.018 186.125 166.983 186.116 167.105C186.108 167.288 186.095 167.467 186.06 167.646C186.03 167.825 186.294 167.995 186.363 167.781C186.42 167.615 186.602 167.088 186.879 167.227C187.018 167.297 186.97 167.689 187.096 167.825C187.282 168.025 187.737 168.043 187.901 167.807C187.953 167.729 187.897 167.611 187.806 167.593H187.797Z" fill="#5263BD"/>
<path d="M189.803 165.981C189.223 166.399 188.742 167.044 188.668 167.781C188.616 168.269 188.881 169.006 189.491 168.893C189.626 168.871 189.63 168.684 189.509 168.636C188.391 168.182 189.361 166.678 189.933 166.159C190.024 166.076 189.907 165.906 189.803 165.981Z" fill="#5263BD"/>
<path d="M190.657 167.232C190.423 167.07 189.998 167.136 189.73 167.192C189.582 167.227 189.678 167.441 189.782 167.467C189.942 167.502 190.107 167.502 190.267 167.506C190.414 167.506 190.549 167.532 190.666 167.437C190.726 167.384 190.718 167.28 190.653 167.232H190.657Z" fill="#5263BD"/>
<path d="M192.806 168.74C192.706 168.592 192.658 168.505 192.667 168.317C192.671 168.169 192.706 168.021 192.684 167.868C192.671 167.781 192.641 167.703 192.598 167.628C192.645 167.554 192.702 167.485 192.741 167.406C192.806 167.288 192.637 167.123 192.554 167.249C192.511 167.315 192.463 167.376 192.416 167.432C192.394 167.415 192.372 167.397 192.346 167.384C191.883 167.153 191.45 167.502 191.207 167.881C191.112 168.029 190.995 168.213 191.081 168.387C191.168 168.57 191.367 168.588 191.536 168.522C191.857 168.4 192.134 168.178 192.368 167.916C192.377 168.082 192.333 168.239 192.338 168.409C192.342 168.635 192.442 168.923 192.693 168.954C192.823 168.967 192.866 168.836 192.801 168.736L192.806 168.74ZM191.783 167.999C191.692 168.056 191.601 168.108 191.506 168.152C191.467 168.169 191.424 168.186 191.385 168.204L191.441 168.173C191.515 167.999 191.64 167.816 191.796 167.707C191.922 167.62 192.1 167.589 192.225 167.646C192.091 167.777 191.948 167.89 191.788 167.995L191.783 167.999Z" fill="#5263BD"/>
<path d="M194.006 167.594C193.945 167.297 193.698 167.009 193.729 166.709C193.733 166.661 193.668 166.621 193.642 166.674C193.46 167.053 193.785 167.476 193.776 167.886C193.759 168.522 193.46 168.984 193.023 169.416C192.897 169.538 193.062 169.752 193.213 169.66C193.646 169.39 193.911 168.901 194.006 168.409C194.058 168.139 194.058 167.864 194.006 167.598V167.594Z" fill="#5263BD"/>
<path d="M196.047 168.043C195.665 168.008 195.275 168.008 194.89 167.99C194.743 167.986 194.777 168.23 194.903 168.243C195.28 168.282 195.657 168.339 196.034 168.356C196.246 168.37 196.237 168.056 196.047 168.043Z" fill="#5263BD"/>
<path d="M196.211 167.55C196.055 167.485 195.895 167.506 195.726 167.506C195.535 167.506 195.34 167.515 195.15 167.519C194.968 167.519 195.046 167.799 195.202 167.803C195.384 167.803 195.566 167.812 195.743 167.812C195.899 167.812 196.077 167.846 196.22 167.777C196.315 167.733 196.302 167.589 196.207 167.55H196.211Z" fill="#5263BD"/>
<path d="M198.304 167.79C198.109 167.733 197.892 167.742 197.689 167.729C197.524 167.72 197.342 167.681 197.19 167.755C197.099 167.798 197.121 167.912 197.199 167.96C197.368 168.06 197.572 168.056 197.762 168.073C197.949 168.091 198.144 168.13 198.33 168.104C198.525 168.073 198.451 167.829 198.304 167.79Z" fill="#5263BD"/>
<path d="M199.426 167.768C199.604 167.65 199.807 167.602 200.033 167.611C200.132 167.615 200.098 167.463 200.011 167.454C199.695 167.428 199.4 167.519 199.136 167.698C199.066 167.746 199.101 167.859 199.17 167.89C199.313 167.951 199.452 168.021 199.586 168.099C199.699 168.165 199.916 168.269 199.981 168.396C200.05 168.448 200.037 168.505 199.942 168.566L199.846 168.592C199.773 168.605 199.69 168.605 199.617 168.592C199.508 168.57 199.422 168.505 199.309 168.496C199.253 168.492 199.24 168.557 199.248 168.596C199.357 168.967 200.085 168.993 200.253 168.657C200.453 168.252 199.812 167.929 199.426 167.764V167.768Z" fill="#5263BD"/>
<path d="M200.709 167.881C200.709 167.785 200.574 167.729 200.553 167.842C200.496 168.13 200.358 168.444 200.405 168.74C200.427 168.871 200.622 168.932 200.678 168.792C200.787 168.518 200.704 168.169 200.709 167.881Z" fill="#5263BD"/>
<path d="M200.938 167.075C200.791 167.075 200.843 167.31 200.977 167.31C201.124 167.31 201.072 167.075 200.938 167.075Z" fill="#5263BD"/>
<path d="M202.511 168.697C202.381 168.627 202.303 168.574 202.251 168.426C202.225 168.343 202.199 168.261 202.151 168.186C202.069 168.051 201.939 167.964 201.779 167.955C201.532 167.938 201.363 168.069 201.241 168.248C201.211 168.16 201.064 168.125 201.064 168.243C201.064 168.396 201.055 168.54 201.038 168.688C201.025 168.845 201.267 168.954 201.328 168.779C201.389 168.609 201.445 168.413 201.601 168.313C201.696 168.248 201.848 168.234 201.93 168.348C201.969 168.4 201.978 168.531 202 168.596C202.069 168.806 202.216 168.967 202.442 168.967C202.476 168.967 202.524 168.941 202.537 168.91L202.559 168.867C202.593 168.806 202.572 168.736 202.507 168.701L202.511 168.697Z" fill="#5263BD"/>
<path d="M204.508 169.124C204.413 168.976 204.287 168.849 204.209 168.688C204.192 168.653 204.183 168.618 204.17 168.583C204.248 168.409 204.292 168.217 204.292 168.021C204.292 167.907 204.097 167.785 204.058 167.938C204.045 167.986 204.027 168.03 204.01 168.077C203.958 167.96 203.867 167.855 203.724 167.873C203.529 167.894 203.377 168.178 203.308 168.339C203.191 168.605 203.174 168.875 203.234 169.159C203.256 169.255 203.377 169.359 203.481 169.307C203.676 169.211 203.845 169.067 203.98 168.897C204.066 169.067 204.179 169.224 204.326 169.32C204.474 169.42 204.599 169.268 204.508 169.124ZM203.486 168.854C203.464 168.718 203.477 168.579 203.525 168.448C203.551 168.387 203.646 168.169 203.724 168.152C203.815 168.13 203.793 168.282 203.806 168.348C203.811 168.387 203.824 168.426 203.832 168.466C203.741 168.609 203.624 168.74 203.486 168.849V168.854Z" fill="#5263BD"/>
<path d="M181.992 182.172C181.58 181.998 180.592 182.346 180.432 181.758C180.241 181.069 181.177 180.978 181.602 180.86C181.714 180.829 181.658 180.659 181.567 180.642C180.896 180.52 179.938 180.978 180.107 181.793C180.181 182.137 180.471 182.342 180.796 182.425C181.13 182.508 181.749 182.608 182.031 182.368C182.091 182.316 182.074 182.207 181.996 182.176L181.992 182.172Z" fill="#5263BD"/>
<path d="M188.729 173.932C188.59 173.688 188.291 173.666 188.07 173.549C187.893 173.457 187.754 173.244 187.966 173.104C188.096 173.021 188.265 172.999 188.417 172.991C188.543 172.982 188.499 172.795 188.387 172.795C188.027 172.795 187.403 172.982 187.655 173.475C187.78 173.723 188.04 173.789 188.274 173.884C188.296 173.893 188.512 173.985 188.517 174.002C188.517 174.024 188.213 174.094 188.218 174.094C188.049 174.124 187.88 174.094 187.707 174.094C187.559 174.098 187.59 174.303 187.689 174.351C187.936 174.469 189.011 174.421 188.729 173.924V173.932Z" fill="#5263BD"/>
<path d="M189.786 173.405C189.777 173.265 189.543 173.226 189.53 173.388C189.513 173.632 189.474 173.876 189.483 174.12C189.487 174.334 189.834 174.429 189.838 174.177C189.847 173.919 189.803 173.662 189.786 173.405Z" fill="#5263BD"/>
<path d="M189.894 172.651C189.691 172.651 189.777 172.969 189.959 172.969C190.163 172.969 190.076 172.651 189.894 172.651Z" fill="#5263BD"/>
<path d="M192.022 174.081C191.883 174.024 191.757 174.002 191.649 173.885C191.584 173.815 191.532 173.736 191.467 173.667C191.346 173.536 191.177 173.409 190.995 173.392C190.847 173.379 190.722 173.422 190.627 173.544C190.557 173.627 190.549 173.745 190.484 173.828C190.358 173.989 190.432 173.584 190.432 173.505C190.432 173.388 190.254 173.322 190.237 173.462C190.215 173.658 190.102 174.007 190.302 174.15C190.453 174.264 190.657 174.181 190.756 174.041C190.782 174.007 190.795 173.963 190.813 173.924C190.912 173.732 191.047 173.71 191.211 173.876C191.307 173.972 191.376 174.094 191.476 174.185C191.632 174.329 191.879 174.491 192.061 174.316C192.13 174.251 192.108 174.124 192.017 174.085L192.022 174.081Z" fill="#5263BD"/>
<path d="M196.441 172.167C195.626 172.04 194.764 172.106 193.954 172.21C193.776 172.232 193.846 172.503 194.006 172.485C194.184 172.468 194.357 172.459 194.53 172.455C194.53 172.651 194.53 172.843 194.491 173.034C194.452 173.257 194.366 173.462 194.383 173.684C194.392 173.797 194.552 173.858 194.621 173.767C194.764 173.579 194.769 173.292 194.777 173.061C194.786 172.856 194.777 172.655 194.76 172.45C194.946 172.45 195.128 172.45 195.31 172.455C195.323 172.646 195.323 172.834 195.293 173.03C195.258 173.248 195.176 173.418 195.293 173.619C195.315 173.653 195.375 173.684 195.414 173.662C195.626 173.562 195.613 173.296 195.618 173.087C195.618 172.882 195.6 172.673 195.566 172.463C195.852 172.476 196.138 172.494 196.432 172.507C196.662 172.52 196.649 172.193 196.441 172.162V172.167Z" fill="#5263BD"/>
<path d="M193.898 171.971C193.963 171.87 193.811 171.722 193.733 171.827C192.719 173.165 192.208 174.495 193.404 175.912C193.534 176.064 193.794 175.938 193.685 175.742C193.334 175.083 192.936 174.573 193.066 173.767C193.174 173.108 193.538 172.524 193.898 171.971Z" fill="#5263BD"/>
<path d="M196.818 174.181C196.038 173.902 195.033 173.972 194.222 174.02C194.054 174.028 194.123 174.281 194.27 174.281C194.716 174.277 195.163 174.29 195.609 174.334C196.008 174.373 196.406 174.473 196.809 174.464C196.965 174.464 196.943 174.225 196.822 174.181H196.818Z" fill="#5263BD"/>
<path d="M196.315 175.707C196.138 175.676 195.431 175.881 195.384 175.729C195.349 175.624 195.518 175.589 195.596 175.502C195.657 175.437 195.704 175.345 195.709 175.253C195.743 174.695 194.76 175.009 194.496 175.044C194.348 175.062 194.4 175.284 194.535 175.275L195.171 175.227C195.358 175.214 195.44 175.188 195.254 175.332C195.219 175.358 195.171 175.371 195.137 175.402C194.981 175.532 194.885 175.698 194.994 175.899C195.228 176.335 196.138 176.199 196.402 175.899C196.458 175.833 196.393 175.72 196.32 175.707H196.315Z" fill="#5263BD"/>
<path d="M199.097 174.142C198.798 174.142 198.499 174.155 198.2 174.181C198.009 174.198 198.061 174.495 198.23 174.508C198.538 174.534 198.845 174.556 199.153 174.551C199.391 174.551 199.313 174.142 199.101 174.137L199.097 174.142Z" fill="#5263BD"/>
<path d="M202.221 174.939C202.034 174.817 201.822 174.791 201.64 174.656C201.588 174.617 201.545 174.578 201.506 174.534C201.748 174.207 201.939 173.845 202.013 173.675C202.06 173.557 201.878 173.448 201.813 173.575C201.683 173.836 201.519 174.063 201.324 174.272C201.276 174.177 201.233 174.081 201.202 173.972C201.185 173.915 201.15 173.867 201.094 173.854C200.522 173.736 199.768 174.56 200.293 175.057C200.609 175.358 200.986 175.127 201.311 174.769C201.549 175.044 201.887 175.271 202.208 175.179C202.312 175.149 202.299 174.987 202.221 174.939ZM201.012 174.573C200.947 174.626 200.83 174.748 200.743 174.765C200.661 174.844 200.587 174.813 200.526 174.682C200.245 174.517 200.306 174.303 200.708 174.041C200.99 173.985 200.973 174.181 201.051 174.364C201.068 174.403 201.085 174.442 201.107 174.482C201.072 174.512 201.042 174.543 201.012 174.573Z" fill="#5263BD"/>
<path d="M203.351 174.591C203.304 173.919 203.026 173.3 202.606 172.782C202.502 172.655 202.324 172.782 202.424 172.921C203.009 173.701 203.334 175.075 202.584 175.864C202.467 175.986 202.593 176.182 202.753 176.138C203.347 175.982 203.386 175.101 203.351 174.591Z" fill="#5263BD"/>
<path d="M204.924 175.001C204.703 174.926 204.487 174.974 204.279 175.066C204.097 175.144 204.244 175.415 204.417 175.362C204.586 175.31 204.742 175.336 204.915 175.314C205.084 175.297 205.071 175.044 204.928 174.996L204.924 175.001Z" fill="#5263BD"/>
<path d="M204.998 174.604C204.863 174.504 204.733 174.517 204.569 174.517C204.374 174.517 204.175 174.517 203.98 174.521C203.776 174.521 203.863 174.835 204.045 174.839C204.227 174.839 204.413 174.839 204.595 174.844C204.742 174.844 204.894 174.874 205.002 174.77C205.05 174.726 205.05 174.647 204.993 174.608L204.998 174.604Z" fill="#5263BD"/>
<path d="M207.381 174.704C207.355 174.639 207.29 174.586 207.216 174.617C206.93 174.739 206.584 175.001 206.519 175.328C206.497 175.428 206.519 175.502 206.553 175.563C206.506 175.572 206.454 175.58 206.402 175.58C206.285 175.572 206.168 175.545 206.094 175.445C205.912 175.201 206.176 174.87 206.432 174.844C206.605 174.826 206.532 174.586 206.384 174.582C205.903 174.569 205.531 175.105 205.734 175.554C205.83 175.763 206.029 175.907 206.25 175.964C206.449 176.016 206.826 175.977 206.848 175.72C206.96 175.737 207.086 175.733 207.181 175.72C207.472 175.676 207.736 175.498 207.753 175.179C207.762 175.005 207.606 174.604 207.381 174.708V174.704ZM207.077 175.38C207.038 175.384 206.857 175.41 206.835 175.38C206.835 175.38 206.891 175.266 206.917 175.232C207.017 175.079 207.155 174.961 207.316 174.878C207.355 174.961 207.433 175.014 207.428 175.114C207.415 175.288 207.229 175.358 207.082 175.375L207.077 175.38Z" fill="#5263BD"/>
<path d="M208.927 174.996C208.867 174.865 208.689 174.674 208.529 174.73C208.698 174.669 208.564 174.421 208.408 174.46C208.109 174.534 208.295 174.9 208.473 174.992C208.568 175.04 208.654 175.057 208.654 175.184C208.654 175.288 208.594 175.371 208.512 175.428C208.33 175.559 208.1 175.511 207.905 175.607C207.727 175.694 207.818 175.955 207.996 175.981C208.351 176.034 208.81 175.798 208.936 175.445C208.988 175.301 208.992 175.136 208.927 174.996Z" fill="#5263BD"/>
<path d="M211.003 175.62C210.886 175.524 210.881 175.371 210.834 175.236C210.799 175.14 210.751 175.057 210.695 174.974C210.816 174.791 210.929 174.604 211.02 174.399C211.068 174.29 210.877 174.146 210.816 174.264C210.725 174.438 210.617 174.599 210.496 174.756C210.34 174.63 210.145 174.556 209.937 174.569C209.3 174.612 209.283 175.354 209.408 175.82C209.443 175.955 209.582 176.025 209.703 175.951C209.998 175.768 210.257 175.541 210.474 175.28C210.548 175.519 210.626 176.125 211.029 175.89C211.128 175.829 211.068 175.676 211.003 175.624V175.62ZM209.681 175.506C209.647 175.358 209.625 175.201 209.681 175.07C209.816 174.756 210.097 174.826 210.288 175C210.106 175.192 209.902 175.358 209.681 175.506Z" fill="#5263BD"/>
<path d="M201.224 187.556C200.778 187.356 200.327 187.168 199.877 186.985C199.716 186.92 199.664 187.142 199.799 187.212C199.864 187.247 199.933 187.277 200.002 187.312C198.512 187.181 196.995 187.194 195.505 187.077C195.323 187.064 195.141 187.042 194.959 187.024C196.696 186.388 198.49 185.843 199.175 184.003C199.205 183.916 199.079 183.803 199.019 183.894C197.905 185.555 196.267 186.052 194.547 186.745C194.734 185.416 194.885 184.073 195.193 182.787C195.258 182.843 195.34 182.87 195.444 182.839C195.618 182.791 195.496 182.525 195.349 182.53C195.336 182.503 195.323 182.482 195.314 182.455C195.306 182.442 195.297 182.425 195.293 182.412C195.319 182.312 195.345 182.216 195.371 182.115C195.388 182.054 195.297 181.989 195.271 182.059C195.258 182.089 195.249 182.12 195.236 182.15C195.158 182.133 195.085 182.124 195.011 182.137C194.734 182.076 194.413 182.442 194.261 182.626C194.136 182.774 194.4 182.996 194.539 182.839C194.669 182.678 194.842 182.582 195.007 182.477C195.007 182.477 195.007 182.482 195.015 182.486C195.041 182.517 195.054 182.573 195.072 182.612C194.586 184.003 194.3 185.468 194.045 186.942C192.836 186.828 191.623 186.697 190.418 186.545C190.267 186.527 190.267 186.75 190.401 186.776C191.419 186.955 192.437 187.103 193.456 187.234C192.338 187.8 191.328 188.629 191.055 189.919C191.034 190.028 191.216 190.115 191.259 189.993C191.744 188.633 192.78 187.94 193.958 187.425C193.759 188.589 193.568 189.753 193.3 190.887C193.265 191.026 193.464 191.157 193.529 191C194.01 189.845 194.266 188.611 194.456 187.36C194.877 187.404 195.293 187.447 195.713 187.482C197.329 187.617 199.04 187.822 200.661 187.67C200.669 187.67 200.674 187.661 200.682 187.657C200.743 187.687 200.804 187.718 200.869 187.748C200.782 187.818 200.695 187.883 200.6 187.94C200.448 188.031 200.271 188.092 200.141 188.206C200.033 188.302 200.132 188.48 200.266 188.476C200.648 188.459 201.042 188.123 201.306 187.866C201.406 187.77 201.354 187.613 201.237 187.561L201.224 187.556Z" fill="#5263BD"/>
<path d="M193.564 181.688H193.425C193.451 181.562 193.269 181.431 193.209 181.579C193.113 181.819 193.278 182.02 193.473 182.05C193.438 182.15 193.391 182.251 193.33 182.342C193.217 182.517 193.061 182.617 192.918 182.761C192.814 182.865 192.927 183.075 193.074 183.018C193.529 182.843 193.789 182.268 193.833 181.81C193.846 181.688 193.642 181.549 193.568 181.684L193.564 181.688Z" fill="#5263BD"/>
<path d="M200.02 189.479C200.08 189.426 200.132 189.37 200.193 189.318C200.34 189.2 200.137 188.947 199.989 189.06C199.894 189.134 199.803 189.209 199.712 189.287C199.63 189.239 199.547 189.187 199.465 189.134C199.318 189.043 199.227 189.278 199.348 189.37C199.4 189.409 199.448 189.444 199.5 189.483C199.469 189.514 199.439 189.54 199.409 189.57C199.257 189.727 199.049 189.902 199.058 190.133C199.058 190.207 199.145 190.246 199.21 190.237C199.4 190.198 199.526 189.95 199.651 189.815C199.69 189.771 199.738 189.736 199.781 189.697C199.846 189.745 199.911 189.797 199.976 189.845C200.033 189.884 200.128 189.906 200.184 189.849C200.206 189.828 200.223 189.81 200.232 189.775C200.254 189.701 200.219 189.605 200.154 189.562C200.111 189.531 200.063 189.505 200.015 189.474L200.02 189.479Z" fill="#5263BD"/>
<path d="M266.39 195.273C262.041 194.893 257.639 194.933 253.276 194.702C248.328 194.436 243.389 194.083 238.454 193.664C238.285 193.651 238.285 193.904 238.437 193.917C243.159 194.379 247.886 194.75 252.622 195.02C257.184 195.281 261.85 195.687 266.421 195.478C266.555 195.473 266.499 195.281 266.39 195.273Z" fill="#5263BD"/>
<path d="M266.941 192.095C262.392 191.864 257.834 191.986 253.28 191.711C248.869 191.445 244.472 191.005 240.092 190.407C239.91 190.381 239.914 190.66 240.074 190.682C244.598 191.319 249.138 191.789 253.696 192.073C258.072 192.348 262.599 192.666 266.971 192.308C267.114 192.295 267.058 192.099 266.936 192.095H266.941Z" fill="#5263BD"/>
<path d="M266.962 188.537C262.643 188.21 258.302 188.136 253.982 187.831C249.667 187.526 245.36 187.125 241.067 186.619C240.906 186.602 240.906 186.841 241.049 186.863C245.421 187.447 249.801 187.936 254.199 188.28C258.436 188.616 262.738 188.969 266.993 188.869C267.188 188.864 267.131 188.55 266.962 188.537Z" fill="#5263BD"/>
<path d="M268.345 184.282C266.252 184.034 264.029 184.295 261.924 184.304C259.718 184.313 257.509 184.291 255.303 184.234C250.824 184.121 246.348 183.903 241.881 183.541C241.664 183.524 241.673 183.851 241.868 183.868C246.339 184.273 250.824 184.574 255.312 184.701C257.517 184.762 259.727 184.792 261.937 184.792C264.016 184.792 266.321 184.988 268.371 184.6C268.548 184.566 268.513 184.304 268.345 184.287V184.282Z" fill="#5263BD"/>
<path d="M266.906 179.565C258.596 179.665 250.386 179.36 242.154 178.1C241.976 178.074 241.981 178.34 242.137 178.366C250.304 179.722 258.735 180.454 267.014 179.992C267.3 179.975 267.149 179.556 266.902 179.561L266.906 179.565Z" fill="#5263BD"/>
<path d="M240.781 172.354C239.342 172.816 237.9 173.3 236.47 173.797C236.877 172.559 237.055 171.203 237.31 169.935C237.588 168.548 237.856 167.158 238.12 165.771C238.614 163.195 239.373 160.492 239.29 157.85C239.286 157.658 239.013 157.575 238.978 157.793C238.541 160.47 238.112 163.138 237.609 165.806C237.358 167.127 237.115 168.448 236.873 169.769C236.626 171.116 236.279 172.52 236.214 173.889C236.145 173.915 236.076 173.937 236.002 173.963C235.868 174.011 235.902 174.15 235.989 174.229C233.697 174.163 231.414 174.063 229.13 173.819C226.782 173.566 224.464 173.117 222.12 172.821C222.103 172.821 222.094 172.825 222.081 172.829C222.094 172.821 222.103 172.812 222.107 172.795C222.437 171.43 222.385 169.926 222.467 168.526C222.554 166.974 222.64 165.422 222.727 163.875C222.887 161.01 223.086 158.151 223.476 155.308C223.489 155.334 223.515 155.36 223.55 155.369C225.946 155.962 228.437 156.267 230.876 156.59C233.121 156.886 235.586 157.431 237.848 157.283C238.056 157.27 237.969 156.987 237.817 156.947C236.656 156.677 235.413 156.668 234.23 156.542C233.038 156.415 231.851 156.28 230.66 156.128C228.294 155.827 225.937 155.391 223.563 155.151C223.528 155.151 223.507 155.16 223.489 155.173C223.511 155.012 223.528 154.85 223.55 154.693C223.567 154.576 223.381 154.515 223.359 154.65C222.831 157.684 222.558 160.745 222.359 163.818C222.255 165.37 222.168 166.922 222.077 168.47C221.999 169.76 221.821 171.116 221.912 172.415C221.6 171.535 221.228 170.663 220.877 169.804C220.833 169.695 220.686 169.738 220.716 169.856C221.007 170.924 221.34 172.032 221.826 173.03C221.886 173.152 222.09 173.152 222.107 173.03C226.6 174.299 231.57 174.678 236.223 174.678C236.5 174.678 236.483 174.299 236.257 174.246C237.856 173.863 239.464 173.361 240.997 172.773C241.262 172.672 241.019 172.28 240.772 172.359L240.781 172.354Z" fill="#5263BD"/>
<path d="M242.644 155.57C241.621 155.884 240.62 156.477 239.65 156.93C239.498 157 239.62 157.257 239.767 157.192C240.755 156.751 241.868 156.385 242.787 155.81C242.917 155.731 242.769 155.53 242.644 155.57Z" fill="#5263BD"/>
<path d="M243.354 154.475C240.815 152.557 238.19 150.752 235.603 148.904C235.464 148.804 235.334 149 235.469 149.096C238.025 151.005 240.551 152.971 243.155 154.816C243.393 154.986 243.575 154.641 243.358 154.475H243.354Z" fill="#5263BD"/>
<path d="M235.166 148.804C231.227 149.802 227.324 150.927 223.459 152.174C223.199 152.256 223.433 152.666 223.68 152.588C227.523 151.332 231.388 150.155 235.278 149.061C235.439 149.017 235.313 148.769 235.166 148.808V148.804Z" fill="#5263BD"/>
<path d="M223.13 154.153C223.06 153.726 223.06 153.298 223.099 152.867C223.112 152.719 222.848 152.601 222.818 152.775C222.701 153.429 222.549 154.558 223.026 155.103C223.082 155.164 223.234 155.204 223.255 155.086C223.316 154.772 223.182 154.467 223.134 154.153H223.13Z" fill="#5263BD"/>
<path d="M242.743 156.036C242.436 158.447 242.115 160.862 241.82 163.273C241.526 165.667 241.092 168.104 241.019 170.514C241.019 170.641 241.235 170.763 241.27 170.602C241.76 168.295 241.903 165.885 242.176 163.543C242.462 161.058 242.726 158.573 243.003 156.088C243.02 155.927 242.765 155.853 242.743 156.036Z" fill="#5263BD"/>
<path d="M222.454 154.423C222.146 156.834 221.826 159.249 221.531 161.66C221.236 164.054 220.803 166.491 220.729 168.901C220.729 169.028 220.946 169.15 220.981 168.989C221.47 166.682 221.613 164.272 221.886 161.93C222.177 159.445 222.437 156.96 222.714 154.475C222.731 154.314 222.476 154.24 222.454 154.423Z" fill="#5263BD"/>
<path d="M234.702 149.335L231.141 168.579" stroke="#5263BD" stroke-width="0.52" stroke-linecap="round" stroke-linejoin="round"/>
<path d="M220.885 169.385L230.556 169.089L241.391 172.093" stroke="#5263BD" stroke-width="0.52" stroke-linecap="round" stroke-linejoin="round"/>
<path d="M232.089 153.133C231.929 153.102 231.76 153.085 231.595 153.072C231.518 152.701 231.435 152.326 231.362 151.96C231.327 151.79 231.071 151.786 231.097 151.977C231.141 152.33 231.175 152.688 231.214 153.045C230.902 153.032 230.59 153.032 230.274 153.041C230.547 152.688 230.829 152.335 231.054 151.951C231.115 151.851 230.976 151.659 230.872 151.764C230.599 152.034 230.365 152.344 230.127 152.64L229.797 153.045C229.676 153.045 229.551 153.045 229.429 153.045C229.239 153.045 229.291 153.364 229.46 153.372C229.49 153.372 229.525 153.377 229.555 153.377C229.499 153.455 229.442 153.529 229.386 153.577C229.356 153.577 229.325 153.582 229.295 153.603L229.269 153.625C229.221 153.66 229.213 153.726 229.221 153.782V153.813C229.243 153.913 229.338 153.97 229.434 153.974C229.659 153.974 229.862 153.665 230.014 153.416C230.43 153.455 230.855 153.494 231.275 153.508C231.31 153.76 231.353 154.013 231.409 154.257C231.453 154.445 231.803 154.51 231.782 154.266C231.76 154.013 231.721 153.76 231.678 153.508C231.829 153.503 231.977 153.494 232.124 153.477C232.332 153.451 232.258 153.168 232.089 153.133Z" fill="#5263BD"/>
<path d="M245.369 167.236C245.239 166.713 245.135 165.353 244.381 165.283C244.19 165.266 244.034 165.327 243.9 165.427C243.9 164.851 243.909 164.28 243.917 163.705C243.917 163.535 243.64 163.452 243.636 163.648C243.618 164.128 243.597 164.603 243.579 165.078C243.571 165.322 243.579 165.614 243.562 165.898C243.441 166.172 243.38 166.478 243.367 166.704C243.358 166.87 243.649 167.049 243.735 166.857C243.835 166.634 243.874 166.412 243.891 166.19C243.922 166.12 243.956 166.05 244 165.985C244.459 165.832 244.697 165.937 244.715 166.303C244.862 166.569 244.888 166.992 244.975 167.288C245.044 167.537 245.447 167.519 245.377 167.236H245.369Z" fill="#5263BD"/>
<path d="M221.804 184.029C221.704 183.659 221.639 183.297 221.643 182.909C221.643 182.739 221.44 182.639 221.327 182.769C221.336 182.695 221.34 182.617 221.314 182.538C221.245 182.329 221.037 182.211 220.825 182.264C220.539 182.333 220.244 182.665 220.092 182.905C219.923 183.171 219.871 183.458 220.019 183.746C220.062 183.833 220.149 183.872 220.244 183.851C220.651 183.75 221.007 183.559 221.314 183.297C221.332 183.559 221.371 183.816 221.444 184.069C221.509 184.291 221.877 184.282 221.808 184.029H221.804ZM220.669 182.774C220.79 182.66 220.981 182.495 221.063 182.717C221.093 182.8 221.072 182.939 221.041 183.044C220.812 183.236 220.547 183.371 220.266 183.467C220.244 183.201 220.487 182.944 220.669 182.774Z" fill="#5263BD"/>
<path d="M222.909 181.727C222.718 181.697 222.532 181.714 222.341 181.71C222.22 181.71 222.098 181.701 221.977 181.688C222.077 181.601 222.194 181.527 222.285 181.435C222.389 181.322 222.445 181.178 222.445 181.026C222.445 180.89 222.402 180.755 222.302 180.664C222.254 180.62 222.198 180.59 222.133 180.581C222.085 180.572 222.029 180.59 221.977 180.607L221.964 180.594C221.942 180.563 221.899 180.537 221.86 180.555C221.782 180.585 221.747 180.646 221.747 180.729C221.747 180.786 221.778 180.847 221.83 180.873C221.873 180.895 222.129 180.912 222.116 180.899C222.189 180.991 222.077 181.156 222.016 181.217C221.825 181.4 221.613 181.496 221.509 181.758C221.47 181.858 221.566 181.98 221.661 181.993C222.059 182.054 222.575 182.142 222.965 182.011C223.108 181.963 223.03 181.754 222.909 181.732V181.727Z" fill="#5263BD"/>
<path d="M224.325 183.659C224.131 183.559 223.927 183.611 223.715 183.628L223.628 183.637C223.606 183.349 223.515 183.04 223.459 182.809C223.424 182.674 223.212 182.656 223.234 182.822C223.264 183.044 223.286 183.262 223.294 183.484C223.294 183.545 223.294 183.606 223.294 183.668L222.965 183.698C222.787 183.715 222.857 183.981 223.017 183.973L223.32 183.955C223.329 183.994 223.333 184.034 223.346 184.073C223.381 184.178 223.541 184.199 223.58 184.09C223.598 184.042 223.611 183.994 223.619 183.942L223.771 183.933C223.966 183.925 224.191 183.955 224.347 183.824C224.399 183.781 224.382 183.694 224.321 183.663L224.325 183.659Z" fill="#5263BD"/>
<path d="M226.435 184.134C226.292 183.537 225.668 183.445 225.235 183.707C225.235 183.136 225.227 182.565 225.235 181.993C225.235 181.876 225.045 181.806 225.036 181.945C224.988 182.682 224.928 183.419 224.867 184.151C224.854 184.317 225.114 184.47 225.214 184.3C225.27 184.169 225.365 184.073 225.495 184.003C225.759 183.868 225.946 183.99 226.058 184.365C226.041 184.792 225.473 184.635 225.222 184.618C225.101 184.609 225.123 184.771 225.179 184.827C225.738 185.394 226.63 184.932 226.435 184.134Z" fill="#5263BD"/>
<path d="M229.338 182.891C229.148 182.835 228.974 182.918 228.784 182.952C228.602 182.983 228.415 182.987 228.233 182.983C228.298 182.704 228.498 182.464 228.467 182.159C228.437 181.893 228.281 181.645 227.995 181.653C227.844 181.653 227.909 181.871 228.034 181.88C228.402 181.906 228.099 182.469 228.03 182.595C227.935 182.769 227.861 182.939 227.844 183.136C227.835 183.24 227.935 183.34 228.03 183.358C228.303 183.402 228.571 183.415 228.849 183.384C229.061 183.358 229.343 183.336 229.455 183.131C229.516 183.031 229.447 182.922 229.343 182.891H229.338Z" fill="#5263BD"/>
<path d="M230.811 183.859C230.153 183.729 229.39 183.833 228.723 183.859C228.498 183.868 228.61 184.195 228.797 184.199C229.447 184.226 230.205 184.335 230.842 184.199C231.041 184.156 230.985 183.89 230.807 183.855L230.811 183.859Z" fill="#5263BD"/>
<path d="M230.226 184.465C229.979 184.478 229.745 184.548 229.498 184.574C229.191 184.609 228.883 184.583 228.58 184.518C228.363 184.474 228.381 184.797 228.567 184.845C229.109 184.975 229.849 185.049 230.335 184.709C230.443 184.631 230.335 184.461 230.226 184.465Z" fill="#5263BD"/>
<path d="M233.636 183.262C233.229 183.101 232.835 183.188 232.471 183.415C232.163 183.606 231.673 183.947 231.613 184.339C231.474 185.259 232.895 185.35 233.276 184.705C233.324 184.622 233.263 184.491 233.159 184.505C232.93 184.526 232.748 184.666 232.523 184.705C232.38 184.731 232.154 184.74 232.059 184.596C231.92 184.391 232.159 184.199 232.276 184.082C232.618 183.737 233.082 183.336 233.597 183.484C233.731 183.524 233.757 183.306 233.645 183.262H233.636Z" fill="#5263BD"/>
<path d="M237.418 182.687C237.076 182.617 236.712 182.7 236.366 182.708C236.244 182.708 236.015 182.739 235.898 182.708C235.633 182.639 235.763 182.438 235.802 182.251C235.859 181.98 235.785 181.623 235.451 181.64C235.291 181.645 235.356 181.884 235.495 181.889C235.698 181.889 235.421 182.412 235.408 182.469C235.386 182.569 235.382 182.669 235.421 182.765C235.477 182.918 235.607 183.009 235.759 183.061C235.98 183.136 236.24 183.123 236.47 183.123C236.799 183.123 237.184 183.153 237.483 183C237.631 182.926 237.561 182.717 237.418 182.687Z" fill="#5263BD"/>
<path d="M232.146 194.109C232.012 194.109 231.873 194.109 231.739 194.109C231.821 194.048 231.86 193.917 231.765 193.817C228.957 190.856 224.525 190.12 221.574 187.299C221.453 187.181 221.34 187.373 221.444 187.482C222.809 188.886 224.46 189.858 226.176 190.756C227.285 191.336 228.342 191.925 229.369 192.574C229.369 192.574 229.36 192.579 229.36 192.583C229.117 192.975 228.957 193.568 229.07 194.061C227.389 194.008 225.712 193.899 224.035 193.721C223.411 193.655 222.787 193.581 222.164 193.494C221.336 193.381 221.102 193.376 221.098 192.448C221.098 190.917 221.063 189.387 221.028 187.857C221.028 187.787 220.907 187.761 220.903 187.84C220.825 189.719 220.777 191.593 220.729 193.472C220.729 193.577 220.812 193.673 220.911 193.69C223.684 194.157 226.479 194.414 229.286 194.505C229.334 194.553 229.412 194.553 229.451 194.51C230.387 194.536 231.327 194.545 232.263 194.536C232.544 194.536 232.401 194.091 232.146 194.096V194.109ZM229.382 194.078C229.343 193.934 229.308 193.786 229.308 193.625C229.308 193.311 229.399 193.019 229.555 192.749C229.564 192.735 229.568 192.718 229.568 192.701C230.231 193.132 230.885 193.59 231.526 194.096C231.531 194.1 231.539 194.1 231.544 194.104C230.824 194.104 230.101 194.096 229.382 194.074V194.078Z" fill="#5263BD"/>
<path d="M265.745 166.569C265.268 166.966 264.814 167.415 264.346 167.855C262.5 167.624 260.611 167.541 258.748 167.437C258.319 166.29 258.757 164.973 258.518 163.792C258.427 163.356 258.28 162.789 257.799 162.689C257.219 162.567 256.421 163.199 256.027 163.552C255.568 163.962 255.208 164.455 254.888 164.978C255.048 162.938 255.13 160.902 254.853 158.866C254.831 158.722 254.606 158.713 254.628 158.879C254.896 161.137 254.723 163.391 254.506 165.649C254.476 165.706 254.446 165.758 254.415 165.815C254.203 166.22 254.004 166.661 253.791 167.097C253.531 167.079 253.272 167.057 253.012 167.04C252.305 166.988 251.603 166.94 250.897 166.896C250.75 166.887 250.23 166.896 249.745 166.87C249.814 166.46 249.922 166.055 250.044 165.654C250.083 165.523 249.879 165.401 249.827 165.545C249.688 165.967 249.55 166.408 249.459 166.852C249.13 166.831 248.861 166.787 248.796 166.713C248.844 166.77 248.956 166.739 248.913 166.656L248.874 166.578C248.857 166.547 248.826 166.512 248.787 166.517C248.631 166.539 248.627 166.525 248.545 166.665C248.519 166.709 248.519 166.765 248.553 166.805C248.805 167.097 248.987 167.053 249.403 167.101H249.416C249.32 167.737 249.355 168.378 249.688 168.967C250.091 169.673 250.837 170.113 251.651 169.913C252.756 169.643 253.406 168.418 253.874 167.472C254.021 167.485 254.173 167.493 254.32 167.506C254.134 169.49 253.999 171.478 254.19 173.47C254.203 173.627 254.463 173.667 254.476 173.488C254.615 171.509 254.606 169.525 254.701 167.537C255.264 167.581 255.828 167.624 256.391 167.668C257.115 167.724 257.842 167.794 258.575 167.864C258.822 168.343 259.194 168.745 259.692 169.063C260.429 169.534 261.659 170.066 262.539 169.795C263.106 169.621 263.531 169.089 263.956 168.697C264.099 168.561 264.242 168.426 264.389 168.291C264.766 168.3 265.147 168.3 265.524 168.291C265.689 168.291 265.641 168.038 265.507 168.016C265.273 167.977 265.034 167.947 264.796 167.912C265.182 167.546 265.563 167.179 265.94 166.805C266.057 166.687 265.888 166.451 265.754 166.565L265.745 166.569ZM252.544 168.963C251.725 169.743 250.295 169.834 249.844 168.566C249.671 168.086 249.649 167.607 249.706 167.127C250.312 167.188 250.919 167.236 251.525 167.288C252.223 167.345 252.916 167.397 253.614 167.45C253.324 168.012 252.99 168.548 252.552 168.963H252.544ZM254.355 167.131C254.251 167.123 254.151 167.118 254.047 167.11C254.177 166.835 254.307 166.56 254.437 166.286C254.411 166.569 254.381 166.852 254.355 167.131ZM257.024 167.323C256.257 167.267 255.485 167.21 254.719 167.158C254.745 166.717 254.771 166.277 254.81 165.841C254.818 165.728 254.827 165.614 254.84 165.497C255.269 164.703 255.78 163.971 256.543 163.439C256.972 163.142 257.318 162.881 257.795 163.09C258.384 163.347 258.293 164.176 258.289 164.742C258.284 165.405 258.167 166.063 258.237 166.726C258.263 166.97 258.31 167.197 258.38 167.411C257.925 167.384 257.474 167.358 257.024 167.323ZM262.972 169.01C261.781 169.856 259.766 169.106 258.978 167.899C260.611 168.056 262.253 168.217 263.882 168.274C263.587 168.535 263.288 168.788 262.972 169.015V169.01Z" fill="#5263BD"/>
<path d="M195.02 152.461C192.191 152.069 189.296 151.977 186.446 151.742C183.66 151.515 180.878 151.271 178.097 151.023C172.464 150.512 166.832 149.972 161.208 149.388C161.044 149.37 161.044 149.619 161.191 149.632C166.819 150.26 172.451 150.839 178.088 151.354C180.87 151.611 183.655 151.855 186.437 152.086C189.288 152.326 192.173 152.684 195.033 152.718C195.184 152.718 195.145 152.474 195.015 152.457L195.02 152.461Z" fill="#5263BD"/>
<path d="M192.806 157.75C190.12 157.261 187.334 157.104 184.621 156.799C181.896 156.494 179.175 156.189 176.45 155.888C171.017 155.282 165.575 154.563 160.121 154.157C159.913 154.14 159.921 154.441 160.108 154.467C165.536 155.286 171.021 155.796 176.476 156.416C179.132 156.716 181.784 157.021 184.439 157.318C187.212 157.632 190.033 158.12 192.819 158.229C193.152 158.242 193.079 157.798 192.806 157.745V157.75Z" fill="#5263BD"/>
<path d="M194.275 161.298C192.905 161.032 191.376 161.207 189.981 161.194C188.556 161.181 187.13 161.163 185.705 161.133C182.854 161.08 180.007 160.997 177.161 160.888C171.472 160.666 165.796 160.261 160.112 159.947C159.878 159.934 159.891 160.274 160.103 160.3C165.848 160.915 171.637 161.207 177.408 161.442C180.259 161.56 183.105 161.647 185.956 161.699C187.381 161.726 188.807 161.747 190.232 161.76C191.554 161.773 193.027 161.97 194.322 161.691C194.552 161.643 194.474 161.337 194.279 161.298H194.275Z" fill="#5263BD"/>
</g>
<g clip-path="url(#clip1_0_1)">
<path d="M0 95V230.33H73.49L0 95Z" fill="#FEBB0A"/>
</g>
<g clip-path="url(#clip2_0_1)">
<path d="M326 206L326 1.52588e-05L215 5.55486e-06L326 206Z" fill="#161A74"/>
</g>
<path d="M35.6535 44.968C37.1415 45.304 38.3175 46.048 39.1815 47.2C40.0695 48.328 40.5135 49.624 40.5135 51.088C40.5135 53.248 39.7695 54.94 38.2815 56.164C36.7935 57.388 34.7055 58 32.0175 58H19.4535V32.62H31.6215C34.2135 32.62 36.2415 33.196 37.7055 34.348C39.1935 35.5 39.9375 37.12 39.9375 39.208C39.9375 40.696 39.5415 41.944 38.7495 42.952C37.9815 43.936 36.9495 44.608 35.6535 44.968ZM26.5095 42.7H30.0735C31.8495 42.7 32.7375 41.968 32.7375 40.504C32.7375 38.992 31.8495 38.236 30.0735 38.236H26.5095V42.7ZM30.6135 52.312C32.3895 52.312 33.2775 51.568 33.2775 50.08C33.2775 49.312 33.0375 48.724 32.5575 48.316C32.1015 47.908 31.4415 47.704 30.5775 47.704H26.5095V52.312H30.6135ZM59.6618 53.86H50.6618L49.2938 58H41.8778L51.1298 32.62H59.2658L68.4818 58H61.0298L59.6618 53.86ZM57.8978 48.46L55.1618 40.252L52.4618 48.46H57.8978ZM69.9176 45.256C69.9176 42.76 70.4336 40.54 71.4656 38.596C72.5216 36.628 74.0096 35.104 75.9296 34.024C77.8496 32.92 80.0576 32.368 82.5536 32.368C85.7216 32.368 88.3856 33.22 90.5456 34.924C92.7056 36.604 94.0976 38.896 94.7216 41.8H87.1256C86.6696 40.84 86.0336 40.108 85.2176 39.604C84.4256 39.1 83.5016 38.848 82.4456 38.848C80.8136 38.848 79.5056 39.436 78.5216 40.612C77.5616 41.764 77.0816 43.312 77.0816 45.256C77.0816 47.224 77.5616 48.796 78.5216 49.972C79.5056 51.124 80.8136 51.7 82.4456 51.7C83.5016 51.7 84.4256 51.448 85.2176 50.944C86.0336 50.44 86.6696 49.708 87.1256 48.748H94.7216C94.0976 51.652 92.7056 53.956 90.5456 55.66C88.3856 57.34 85.7216 58.18 82.5536 58.18C80.0576 58.18 77.8496 57.64 75.9296 56.56C74.0096 55.456 72.5216 53.932 71.4656 51.988C70.4336 50.02 69.9176 47.776 69.9176 45.256ZM134.582 32.62V58H127.526V43.996L122.738 58H116.834L112.01 43.888V58H104.954V32.62H113.486L119.858 49.108L126.086 32.62H134.582ZM154.654 53.86H145.654L144.286 58H136.87L146.122 32.62H154.258L163.474 58H156.022L154.654 53.86ZM152.89 48.46L150.154 40.252L147.454 48.46H152.89ZM184.89 32.62V38.236H178.122V58H171.066V38.236H164.37V32.62H184.89ZM210.216 32.62V58H203.16V47.812H194.556V58H187.5V32.62H194.556V42.16H203.16V32.62H210.216ZM223.83 58.252C220.878 58.252 218.454 57.556 216.558 56.164C214.662 54.748 213.642 52.732 213.498 50.116H221.022C221.094 51.004 221.358 51.652 221.814 52.06C222.27 52.468 222.858 52.672 223.578 52.672C224.226 52.672 224.754 52.516 225.162 52.204C225.594 51.868 225.81 51.412 225.81 50.836C225.81 50.092 225.462 49.516 224.766 49.108C224.07 48.7 222.942 48.244 221.382 47.74C219.726 47.188 218.382 46.66 217.35 46.156C216.342 45.628 215.454 44.872 214.686 43.888C213.942 42.88 213.57 41.572 213.57 39.964C213.57 38.332 213.978 36.94 214.794 35.788C215.61 34.612 216.738 33.724 218.178 33.124C219.618 32.524 221.25 32.224 223.074 32.224C226.026 32.224 228.378 32.92 230.13 34.312C231.906 35.68 232.854 37.612 232.974 40.108H225.306C225.282 39.34 225.042 38.764 224.586 38.38C224.154 37.996 223.59 37.804 222.894 37.804C222.366 37.804 221.934 37.96 221.598 38.272C221.262 38.584 221.094 39.028 221.094 39.604C221.094 40.084 221.274 40.504 221.634 40.864C222.018 41.2 222.486 41.5 223.038 41.764C223.59 42.004 224.406 42.316 225.486 42.7C227.094 43.252 228.414 43.804 229.446 44.356C230.502 44.884 231.402 45.64 232.146 46.624C232.914 47.584 233.298 48.808 233.298 50.296C233.298 51.808 232.914 53.164 232.146 54.364C231.402 55.564 230.31 56.512 228.87 57.208C227.454 57.904 225.774 58.252 223.83 58.252Z" fill="white"/>
<path d="M42.7011 76.836C45.4851 76.836 47.8731 77.34 49.8651 78.348C51.8571 79.356 53.3811 80.808 54.4371 82.704C55.4931 84.6 56.0211 86.856 56.0211 89.472C56.0211 92.064 55.4931 94.308 54.4371 96.204C53.3811 98.076 51.8571 99.516 49.8651 100.524C47.8731 101.508 45.4851 102 42.7011 102H35.2491V76.836H42.7011ZM42.7011 99.912C46.2051 99.912 48.8691 99 50.6931 97.176C52.5411 95.328 53.4651 92.76 53.4651 89.472C53.4651 86.16 52.5411 83.58 50.6931 81.732C48.8691 79.86 46.2051 78.924 42.7011 78.924H37.7691V99.912H42.7011ZM78.4511 91.164C78.4511 92.028 78.4271 92.688 78.3791 93.144H62.0711C62.1431 94.632 62.5031 95.904 63.1511 96.96C63.7991 98.016 64.6511 98.82 65.7071 99.372C66.7631 99.9 67.9151 100.164 69.1631 100.164C70.7951 100.164 72.1631 99.768 73.2671 98.976C74.3951 98.184 75.1391 97.116 75.4991 95.772H78.1631C77.6831 97.692 76.6511 99.264 75.0671 100.488C73.5071 101.688 71.5391 102.288 69.1631 102.288C67.3151 102.288 65.6591 101.88 64.1951 101.064C62.7311 100.224 61.5791 99.048 60.7391 97.536C59.9231 96 59.5151 94.212 59.5151 92.172C59.5151 90.132 59.9231 88.344 60.7391 86.808C61.5551 85.272 62.6951 84.096 64.1591 83.28C65.6231 82.464 67.2911 82.056 69.1631 82.056C71.0351 82.056 72.6671 82.464 74.0591 83.28C75.4751 84.096 76.5551 85.2 77.2991 86.592C78.0671 87.96 78.4511 89.484 78.4511 91.164ZM75.8951 91.092C75.9191 89.628 75.6191 88.38 74.9951 87.348C74.3951 86.316 73.5671 85.536 72.5111 85.008C71.4551 84.48 70.3031 84.216 69.0551 84.216C67.1831 84.216 65.5871 84.816 64.2671 86.016C62.9471 87.216 62.2151 88.908 62.0711 91.092H75.8951ZM72.2951 76.548L64.9151 80.832V78.888L72.2951 74.28V76.548ZM85.5816 85.836C86.1336 84.612 86.9736 83.664 88.1016 82.992C89.2536 82.32 90.6576 81.984 92.3136 81.984V84.612H91.6296C89.8056 84.612 88.3416 85.104 87.2376 86.088C86.1336 87.072 85.5816 88.716 85.5816 91.02V102H83.0616V82.344H85.5816V85.836ZM97.3646 78.636C96.8606 78.636 96.4286 78.456 96.0686 78.096C95.7086 77.736 95.5286 77.292 95.5286 76.764C95.5286 76.236 95.7086 75.804 96.0686 75.468C96.4286 75.108 96.8606 74.928 97.3646 74.928C97.8686 74.928 98.3006 75.108 98.6606 75.468C99.0206 75.804 99.2006 76.236 99.2006 76.764C99.2006 77.292 99.0206 77.736 98.6606 78.096C98.3006 78.456 97.8686 78.636 97.3646 78.636ZM98.6246 82.344V102H96.1046V82.344H98.6246ZM111.315 99.552L117.939 82.344H120.603L112.719 102H109.875L101.991 82.344H104.691L111.315 99.552ZM122.867 92.136C122.867 90.12 123.263 88.356 124.055 86.844C124.871 85.308 125.987 84.132 127.403 83.316C128.843 82.476 130.463 82.056 132.263 82.056C134.135 82.056 135.743 82.488 137.087 83.352C138.455 84.216 139.439 85.32 140.039 86.664V82.344H142.559V102H140.039V97.644C139.415 98.988 138.419 100.104 137.051 100.992C135.707 101.856 134.099 102.288 132.227 102.288C130.451 102.288 128.843 101.868 127.403 101.028C125.987 100.188 124.871 99 124.055 97.464C123.263 95.928 122.867 94.152 122.867 92.136ZM140.039 92.172C140.039 90.588 139.715 89.196 139.067 87.996C138.419 86.796 137.531 85.872 136.403 85.224C135.299 84.576 134.075 84.252 132.731 84.252C131.339 84.252 130.091 84.564 128.987 85.188C127.883 85.812 127.007 86.724 126.359 87.924C125.735 89.1 125.423 90.504 125.423 92.136C125.423 93.744 125.735 95.16 126.359 96.384C127.007 97.584 127.883 98.508 128.987 99.156C130.091 99.78 131.339 100.092 132.731 100.092C134.075 100.092 135.299 99.768 136.403 99.12C137.531 98.472 138.419 97.548 139.067 96.348C139.715 95.148 140.039 93.756 140.039 92.172ZM150.796 86.7C151.444 85.332 152.44 84.216 153.784 83.352C155.152 82.488 156.76 82.056 158.608 82.056C160.408 82.056 162.016 82.476 163.432 83.316C164.848 84.132 165.952 85.308 166.744 86.844C167.56 88.356 167.968 90.12 167.968 92.136C167.968 94.152 167.56 95.928 166.744 97.464C165.952 99 164.836 100.188 163.396 101.028C161.98 101.868 160.384 102.288 158.608 102.288C156.736 102.288 155.116 101.868 153.748 101.028C152.404 100.164 151.42 99.048 150.796 97.68V102H148.312V75.36H150.796V86.7ZM165.412 92.136C165.412 90.504 165.088 89.1 164.44 87.924C163.816 86.724 162.952 85.812 161.848 85.188C160.744 84.564 159.496 84.252 158.104 84.252C156.76 84.252 155.524 84.576 154.396 85.224C153.292 85.872 152.416 86.796 151.768 87.996C151.12 89.196 150.796 90.588 150.796 92.172C150.796 93.756 151.12 95.148 151.768 96.348C152.416 97.548 153.292 98.472 154.396 99.12C155.524 99.768 156.76 100.092 158.104 100.092C159.496 100.092 160.744 99.78 161.848 99.156C162.952 98.508 163.816 97.584 164.44 96.384C165.088 95.16 165.412 93.744 165.412 92.136ZM173.865 78.636C173.361 78.636 172.929 78.456 172.569 78.096C172.209 77.736 172.029 77.292 172.029 76.764C172.029 76.236 172.209 75.804 172.569 75.468C172.929 75.108 173.361 74.928 173.865 74.928C174.369 74.928 174.801 75.108 175.161 75.468C175.521 75.804 175.701 76.236 175.701 76.764C175.701 77.292 175.521 77.736 175.161 78.096C174.801 78.456 174.369 78.636 173.865 78.636ZM175.125 82.344V102H172.605V82.344H175.125ZM183.351 75.36V102H180.831V75.36H183.351ZM190.318 78.636C189.814 78.636 189.382 78.456 189.022 78.096C188.662 77.736 188.482 77.292 188.482 76.764C188.482 76.236 188.662 75.804 189.022 75.468C189.382 75.108 189.814 74.928 190.318 74.928C190.822 74.928 191.254 75.108 191.614 75.468C191.974 75.804 192.154 76.236 192.154 76.764C192.154 77.292 191.974 77.736 191.614 78.096C191.254 78.456 190.822 78.636 190.318 78.636ZM191.578 82.344V102H189.058V82.344H191.578ZM200.56 84.468V96.672C200.56 97.872 200.788 98.7 201.244 99.156C201.7 99.612 202.504 99.84 203.656 99.84H205.96V102H203.26C201.484 102 200.164 101.592 199.3 100.776C198.436 99.936 198.004 98.568 198.004 96.672V84.468H195.268V82.344H198.004V77.412H200.56V82.344H205.96V84.468H200.56ZM227.9 91.164C227.9 92.028 227.876 92.688 227.828 93.144H211.52C211.592 94.632 211.952 95.904 212.6 96.96C213.248 98.016 214.1 98.82 215.156 99.372C216.212 99.9 217.364 100.164 218.612 100.164C220.244 100.164 221.612 99.768 222.716 98.976C223.844 98.184 224.588 97.116 224.948 95.772H227.612C227.132 97.692 226.1 99.264 224.516 100.488C222.956 101.688 220.988 102.288 218.612 102.288C216.764 102.288 215.108 101.88 213.644 101.064C212.18 100.224 211.028 99.048 210.188 97.536C209.372 96 208.964 94.212 208.964 92.172C208.964 90.132 209.372 88.344 210.188 86.808C211.004 85.272 212.144 84.096 213.608 83.28C215.072 82.464 216.74 82.056 218.612 82.056C220.484 82.056 222.116 82.464 223.508 83.28C224.924 84.096 226.004 85.2 226.748 86.592C227.516 87.96 227.9 89.484 227.9 91.164ZM225.344 91.092C225.368 89.628 225.068 88.38 224.444 87.348C223.844 86.316 223.016 85.536 221.96 85.008C220.904 84.48 219.752 84.216 218.504 84.216C216.632 84.216 215.036 84.816 213.716 86.016C212.396 87.216 211.664 88.908 211.52 91.092H225.344ZM221.744 76.548L214.364 80.832V78.888L221.744 74.28V76.548Z" fill="white"/>
<g clip-path="url(#clip3_0_1)">
<path d="M94.8 206H74L86.6349 187.678L74 170H94.8L110 187.842L94.8 206Z" fill="#FEBB0A"/>
</g>
<g clip-path="url(#clip4_0_1)">
<path d="M282.466 45.151L267.946 36.7682C265.597 35.4116 262.662 37.1079 262.662 39.819V56.5846C262.662 59.2957 265.597 60.9898 267.946 59.6353L282.466 51.2525C284.814 49.8959 284.814 46.5076 282.466 45.151Z" fill="#FF894D"/>
<path d="M281.69 43.7084L267.17 35.3256C264.821 33.969 261.886 35.6652 261.886 38.3763V55.1419C261.886 57.853 264.821 59.5472 267.17 58.1927L281.69 49.8099C284.038 48.4533 284.038 45.065 281.69 43.7084Z" fill="#FED02B"/>
<path opacity="0.46" d="M266.759 58.4297L269.738 56.7103C267.157 53.5925 265.601 49.5961 265.601 45.2306C265.601 41.8213 266.551 38.6363 268.197 35.9169L266.761 35.0866C264.595 33.8369 261.89 35.399 261.89 37.8983V55.6158C261.89 58.1152 264.597 59.6772 266.761 58.4276L266.759 58.4297Z" fill="#FF894D"/>
<path opacity="0.61" d="M281.69 43.7084L271.602 37.8837C271.567 39.2549 271.766 40.6472 271.969 41.8591C273.248 46.1218 277.32 49.5856 281.946 49.638C284.03 48.1892 283.95 45.0126 281.692 43.7084H281.69Z" fill="#FFAC3E"/>
<path d="M306.547 38.4225C305.222 39.2822 303.982 40.2005 302.861 41.1483C301.747 42.0897 300.73 43.0752 299.837 44.0732C299.46 44.4947 299.11 44.9161 298.778 45.3355C298.6 55.0036 290.712 62.7867 281 62.7867C271.288 62.7867 263.213 54.8233 263.213 45C263.213 35.1767 271.177 27.2133 281 27.2133C282.401 27.2133 283.759 27.381 285.066 27.685C285.416 26.3033 285.921 24.7873 286.586 23.1498C287.355 21.2124 288.167 19.5727 289.041 18.1784C286.496 17.4152 283.797 17 281 17C265.536 17 253 29.5365 253 45C253 60.4635 265.536 73 281 73C296.464 73 309 60.4635 309 45C309 42.4147 308.641 39.9133 307.985 37.5356C307.497 37.8228 307.014 38.1164 306.547 38.4204V38.4225Z" fill="white"/>
<path opacity="0.19" d="M307.987 37.5355C307.499 37.8228 307.016 38.1163 306.549 38.4204C306.14 38.6845 305.744 38.9571 305.354 39.2318C305.178 40.081 304.97 40.9302 304.725 41.7772C300.072 57.8656 284.619 67.5295 270.206 63.3612C262.022 60.9982 255.935 54.6827 253.054 46.7193C253.943 61.3819 266.115 73 281 73C295.885 73 309 60.4635 309 45C309 42.4147 308.641 39.9132 307.985 37.5355H307.987Z" fill="#83FCFC"/>
<path opacity="0.19" d="M307.987 37.5355C307.499 37.8228 307.017 38.1163 306.549 38.4204C305.224 39.28 303.985 40.1984 302.863 41.1461C302.205 41.7039 301.586 42.2763 301.001 42.855C300.81 43.8174 300.58 44.7819 300.301 45.7464C295.648 61.8348 280.195 71.4987 265.782 67.3304C264.738 67.0284 263.729 66.6594 262.754 66.2338C267.654 70.4482 274.03 72.9979 281.002 72.9979C296.466 72.9979 309.002 60.4614 309.002 44.9979C309.002 42.4126 308.644 39.9112 307.987 37.5334V37.5355Z" fill="#59EFEB"/>
<path d="M288.028 19.9648C288.357 19.3295 288.695 18.734 289.043 18.1784C287.185 17.6228 285.25 17.2537 283.254 17.0923C284.965 17.8723 286.56 18.8389 288.028 19.9627V19.9648Z" fill="url(#paint0_linear_0_1)"/>
<path opacity="0.19" d="M307.987 37.5356C307.499 37.8229 307.016 38.1164 306.549 38.4205C305.224 39.2801 303.984 40.1985 302.863 41.1462C301.749 42.0877 300.732 43.0732 299.839 44.0712C299.476 44.4759 299.139 44.8827 298.818 45.2873C298.789 45.7591 298.749 46.233 298.696 46.7068C298.667 47.0192 298.629 47.3317 298.583 47.6399C298.363 49.2607 298.023 50.8919 297.554 52.519C294.75 62.2102 288.028 69.5698 279.975 72.9791C280.316 72.9917 280.658 73.0001 281.004 73.0001C296.468 73.0001 309.004 60.4636 309.004 45.0001C309.004 42.4148 308.646 39.9134 307.989 37.5356H307.987Z" fill="#83FCFC"/>
<path opacity="0.19" d="M263.213 45C263.213 39.2193 265.973 34.0843 270.244 30.8365C273.16 27.4733 277.125 24.9677 281.793 23.8836C283.376 23.5167 284.957 23.3385 286.519 23.3217C286.542 23.263 286.565 23.2064 286.588 23.1498C286.661 22.9632 286.737 22.7807 286.812 22.6004C286.875 21.1096 287.039 19.4805 287.309 17.7234C285.282 17.2537 283.17 17 281 17C271.85 17 263.725 21.3885 258.617 28.1778C257.871 33.5685 258.498 39.5044 260.724 45.3082C262.148 49.0216 264.098 52.3344 266.405 55.1609C264.396 52.2799 263.213 48.7783 263.213 45Z" fill="#83FCFC"/>
<path d="M301.816 29.3582C303.995 28.4126 306.859 33.1345 306.859 33.1345C305.488 33.9208 303.158 35.7303 301.917 36.6549C300.676 37.5796 299.533 38.5462 298.489 39.5505C297.445 40.557 296.505 41.5886 295.673 42.6495C294.838 43.7105 294.132 44.7631 293.551 45.8072L292.002 45.3334C291.991 44.8427 292.004 44.3227 292.041 43.7776C292.079 43.2324 292.136 42.6852 292.213 42.14C292.291 41.5928 292.396 41.0707 292.528 40.5716C292.66 40.0726 292.805 39.626 292.966 39.2318C292.262 38.9907 291.589 38.7684 290.945 38.563C290.301 38.3575 289.668 38.0514 289.041 37.6446C287.911 36.9023 287.196 35.9756 286.892 34.8622C286.714 34.2101 286.72 33.2519 286.911 31.9834C287.101 30.7169 287.468 29.2681 288.011 27.6368C288.649 25.67 289.355 24.0639 290.127 22.8122C290.899 21.5625 291.878 20.7741 293.067 20.4512C294.274 20.122 295.409 20.164 296.468 20.5749C296.73 20.7091 297.134 20.923 297.677 21.2186C298.221 21.5143 298.803 21.8959 299.426 22.3635L298.782 28.5007C296.619 27.4418 295.174 27.012 294.446 27.2112C294.063 27.316 293.679 27.4418 293.297 27.5865C292.914 27.7312 292.54 27.9681 292.178 28.2931C291.779 28.6495 291.486 28.9808 291.291 29.2911C291.098 29.6015 291.033 29.8719 291.094 30.1005C291.438 31.3669 293.671 32.1176 297.793 32.3524C299.059 31.3271 300.384 30.3395 301.772 29.3834" fill="white"/>
<path d="M263.213 45C263.213 35.1767 271.177 27.2133 281 27.2133C282.398 27.2133 283.759 27.381 285.066 27.685C285.416 26.3033 285.921 24.7873 286.586 23.1498C287.355 21.2124 288.167 19.5727 289.041 18.1784C286.493 17.4152 283.795 17 280.998 17C274.234 17 268.029 19.3987 263.19 23.3909C260.617 28.0918 259.473 34.0592 260.343 40.3201C260.957 44.7442 262.5 48.7511 264.677 52.0723C263.735 49.9043 263.211 47.5119 263.211 44.9979L263.213 45Z" fill="white"/>
<path d="M307.987 37.5355C307.499 37.8228 307.016 38.1163 306.549 38.4204C305.224 39.28 303.985 40.1984 302.863 41.1461C301.749 42.0876 300.732 43.0731 299.839 44.0711C299.464 44.4884 299.118 44.9077 298.787 45.325C299.168 46.6564 299.466 48.0361 299.665 49.4619C300.724 57.0982 298.791 64.2922 294.922 69.2887C303.332 64.4578 309.002 55.3936 309.002 44.9979C309.002 42.4126 308.643 39.9112 307.987 37.5334V37.5355Z" fill="white"/>
<path d="M294.092 70.4378C296.879 66.8251 298.56 62.4408 299.25 57.9537C299.942 53.4268 299.502 48.8371 298.541 44.3584C299.386 46.5118 299.955 48.7825 300.242 51.0953C301.114 57.96 299.244 65.5964 294.092 70.4378Z" fill="#3C6EE1"/>
<path opacity="0.19" d="M285.066 27.685C285.416 26.3032 285.921 24.7873 286.586 23.1497C286.764 22.701 286.944 22.2712 287.127 21.8539C279.222 21.6254 271.038 26.6282 266.293 34.9922C269.495 30.2976 274.886 27.2132 280.998 27.2132C282.396 27.2132 283.757 27.381 285.064 27.685H285.066Z" fill="#92FAFF"/>
<path d="M283.252 47.9124C283.77 46.4091 283.252 44.61 281.69 43.7084L277.813 41.4691C278.685 44.1928 280.696 46.5726 283.252 47.9124Z" fill="#FED02B"/>
<path opacity="0.19" d="M307.987 37.5355C307.499 37.8228 307.016 38.1163 306.549 38.4204C305.536 39.0788 304.576 39.7686 303.676 40.4815C304.918 45.7108 304.848 51.458 303.198 57.1632C302.194 60.6333 300.686 63.8057 298.797 66.6028C305.027 61.4679 309 53.6994 309 44.9979C309 42.4126 308.641 39.9112 307.985 37.5334L307.987 37.5355Z" fill="#92FAFF"/>
<path opacity="0.19" d="M299.265 23.936L299.43 22.3655C298.808 21.8959 298.225 21.5143 297.682 21.2207C297.139 20.9272 296.734 20.7112 296.472 20.577C295.413 20.1661 294.279 20.1241 293.071 20.4533C291.882 20.7783 290.903 21.5646 290.131 22.8142C289.36 24.0639 288.655 25.6721 288.016 27.6389C287.47 29.2701 287.104 30.719 286.915 31.9854C286.724 33.2519 286.718 34.2122 286.896 34.8643C286.965 35.1201 287.06 35.3675 287.175 35.6044C287.741 31.8491 289.238 28.2385 291.733 25.345C293.736 23.2001 296.711 22.9086 299.267 23.9381L299.265 23.936Z" fill="#92FAFF"/>
<path opacity="0.19" d="M292.513 39.0808C292.664 39.1312 292.811 39.1815 292.966 39.2339C292.805 39.6281 292.66 40.0747 292.528 40.5737C292.396 41.0728 292.291 41.5948 292.213 42.1421C292.136 42.6894 292.079 43.2345 292.041 43.7797C292.006 44.3248 291.991 44.8427 292.002 45.3355L293.551 45.8093C294.132 44.7651 294.839 43.7126 295.673 42.6516C296.505 41.5907 297.445 40.557 298.489 39.5526C299.533 38.5483 300.676 37.5817 301.917 36.657C303.158 35.7323 305.486 33.9228 306.859 33.1366C306.859 33.1366 303.995 28.4168 301.816 29.3603L301.775 29.3897C300.387 30.3437 299.061 31.3334 297.795 32.3587C297.701 32.3524 297.613 32.3461 297.518 32.3398C297.405 32.4551 297.292 32.5683 297.181 32.6837C295.419 34.642 293.748 36.7807 292.511 39.0829L292.513 39.0808Z" fill="#92FAFF"/>
</g>
<defs>
<linearGradient id="paint0_linear_0_1" x1="283.908" y1="15.4715" x2="288.496" y2="19.9061" gradientUnits="userSpaceOnUse">
<stop offset="0.16" stop-color="#0F83CE"/>
<stop offset="0.59" stop-color="#5C5FEE"/>
<stop offset="1" stop-color="#9672F6"/>
</linearGradient>
<clipPath id="clip0_0_1">
<rect width="136" height="90" fill="white" transform="translate(145 125)"/>
</clipPath>
<clipPath id="clip1_0_1">
<path d="M0 95H73.49V230.33H25C11.1929 230.33 0 219.137 0 205.33V95Z" fill="white"/>
</clipPath>
<clipPath id="clip2_0_1">
<path d="M326 206L215 206L215 5.55486e-06L301 1.30732e-05C314.807 1.42803e-05 326 11.1929 326 25L326 206Z" fill="white"/>
</clipPath>
<clipPath id="clip3_0_1">
<rect width="36" height="36" fill="white" transform="translate(74 170)"/>
</clipPath>
<clipPath id="clip4_0_1">
<rect width="56" height="56" fill="white" transform="translate(253 17)"/>
</clipPath>
</defs>
</svg>
